run/axi_mm_top.vcd
$date
	Sun Feb 01 21:00:53 2026
$end
$version
	QuestaSim Version 10.7c
$end
$timescale
	1ps
$end

$scope module axi_mm_top $end
$var reg 1 ! dma_clk $end
$var reg 1 " core_clk $end
$var reg 1 # rst_n $end

$scope module dut $end
$var parameter 32 $ ADDR_WIDTH $end
$var parameter 32 % DATA_WIDTH $end
$var parameter 32 & ID_WIDTH $end
$var parameter 32 ' DEPTH_WORDS $end
$var parameter 32 ( RD_FIFO_DEPTH $end
$var parameter 32 ) STARVE_THRESHOLD $end
$var parameter 1 * ASSERT_ON_STARVE $end
$var parameter 32 + IDW $end
$var parameter 32 , BYTE_PER_WORD $end
$var parameter 32 - WORD_SHIFT $end
$var parameter 32 . RD_PTR_W $end
$var parameter 32 / RD_CNT_W $end
$var wire 1 0 dma_clk $end
$var wire 1 1 dma_rst_n $end
$var wire 1 2 core_clk $end
$var wire 1 3 core_rst_n $end
$var reg 4 4 p0_awid [3:0] $end
$var reg 32 5 p0_awaddr [31:0] $end
$var reg 8 6 p0_awlen [7:0] $end
$var reg 3 7 p0_awsize [2:0] $end
$var reg 2 8 p0_awburst [1:0] $end
$var reg 1 9 p0_aw_active $end
$var integer 32 : p0_wbeat_cnt $end
$var reg 1 ; p0_wr_req $end
$var reg 1 < p0_wr_consumed $end
$var reg 32 = p0_wr_byte_addr [31:0] $end
$var reg 64 > p0_wr_wdata [63:0] $end
$var reg 8 ? p0_wr_wstrb [7:0] $end
$var reg 3 @ p0_wr_size [2:0] $end
$var reg 1 A p0_wr_is_last $end
$var reg 4 B p0_bid [3:0] $end
$var reg 2 C p0_bresp [1:0] $end
$var reg 1 D p0_bvalid $end
$var reg 1 E p0_w_hs $end
$var reg 4 F p1_awid [3:0] $end
$var reg 32 G p1_awaddr [31:0] $end
$var reg 8 H p1_awlen [7:0] $end
$var reg 3 I p1_awsize [2:0] $end
$var reg 2 J p1_awburst [1:0] $end
$var reg 1 K p1_aw_active $end
$var integer 32 L p1_wbeat_cnt $end
$var reg 1 M p1_local_wr_valid $end
$var reg 32 N p1_local_wr_byte_addr [31:0] $end
$var reg 64 O p1_local_wr_wdata [63:0] $end
$var reg 8 P p1_local_wr_wstrb [7:0] $end
$var reg 3 Q p1_local_wr_size [2:0] $end
$var reg 1 R p1_local_wr_is_last $end
$var reg 1 S p1_w_hs $end
$var reg 1 T p1_req_outstanding $end
$var reg 1 U p1_sent_is_last $end
$var reg 4 V p1_sent_awid [3:0] $end
$var reg 4 W p1_bid [3:0] $end
$var reg 2 X p1_bresp [1:0] $end
$var reg 1 Y p1_bvalid $end
$var reg 32 Z bridge_p1_addr_core [31:0] $end
$var reg 64 [ bridge_p1_wdata_core [63:0] $end
$var reg 8 \ bridge_p1_wstrb_core [7:0] $end
$var reg 3 ] bridge_p1_size_core [2:0] $end
$var reg 1 ^ bridge_p1_is_last_core $end
$var reg 1 _ p1_req_toggle_core $end
$var reg 1 ` p1_req_toggle_sync1_dma $end
$var reg 1 a p1_req_toggle_sync2_dma $end
$var reg 1 b p1_req_toggle_last_seen_dma $end
$var reg 32 c staged_p1_addr_dma [31:0] $end
$var reg 64 d staged_p1_wdata_dma [63:0] $end
$var reg 8 e staged_p1_wstrb_dma [7:0] $end
$var reg 3 f staged_p1_size_dma [2:0] $end
$var reg 1 g staged_p1_is_last_dma $end
$var reg 1 h staged_p1_valid_dma $end
$var reg 1 i staged_p1_consumed $end
$var reg 1 j p1_ack_toggle_dma $end
$var reg 1 k p1_ack_toggle_sync1_core $end
$var reg 1 l p1_ack_toggle_sync2_core $end
$var reg 1 m p1_ack_toggle_last_seen_core $end
$var reg 4 n p0_arid [3:0] $end
$var reg 32 o p0_araddr [31:0] $end
$var reg 8 p p0_arlen [7:0] $end
$var reg 3 q p0_arsize [2:0] $end
$var reg 2 r p0_arburst [1:0] $end
$var reg 1 s p0_ar_active $end
$var integer 32 t p0_issue_idx $end
$var integer 32 u p0_total_beats $end
$var reg 1 v p0_rd_issue $end
$var reg 32 w p0_rd_addr [31:0] $end
$var reg 64 x p0_rd_q1 [63:0] $end
$var reg 64 y p0_rd_q2 [63:0] $end
$var reg 1 z p0_meta_v1 $end
$var reg 1 { p0_meta_v2 $end
$var reg 1 | p0_meta_v3 $end
$var reg 4 } p0_meta_rid1 [3:0] $end
$var reg 4 ~ p0_meta_rid2 [3:0] $end
$var reg 4 !! p0_meta_rid3 [3:0] $end
$var reg 1 "! p0_meta_last1 $end
$var reg 1 #! p0_meta_last2 $end
$var reg 1 $! p0_meta_last3 $end
$var reg 4 %! p0_rd_wptr [3:0] $end
$var reg 4 &! p0_rd_rptr [3:0] $end
$var reg 5 '! p0_rd_count [4:0] $end
$var reg 1 (! p0_rd_fifo_full $end
$var reg 1 )! p0_rd_fifo_empty $end
$var reg 5 *! p0_rd_fifo_free [4:0] $end
$var reg 64 +! p0_rdata [63:0] $end
$var reg 4 ,! p1_arid [3:0] $end
$var reg 32 -! p1_araddr [31:0] $end
$var reg 8 .! p1_arlen [7:0] $end
$var reg 3 /! p1_arsize [2:0] $end
$var reg 2 0! p1_arburst [1:0] $end
$var reg 1 1! p1_ar_active $end
$var integer 32 2! p1_issue_idx $end
$var integer 32 3! p1_total_beats $end
$var reg 1 4! p1_rd_issue $end
$var reg 32 5! p1_rd_addr [31:0] $end
$var reg 64 6! p1_rd_q1 [63:0] $end
$var reg 64 7! p1_rd_q2 [63:0] $end
$var reg 1 8! p1_meta_v1 $end
$var reg 1 9! p1_meta_v2 $end
$var reg 1 :! p1_meta_v3 $end
$var reg 4 ;! p1_meta_rid1 [3:0] $end
$var reg 4 <! p1_meta_rid2 [3:0] $end
$var reg 4 =! p1_meta_rid3 [3:0] $end
$var reg 1 >! p1_meta_last1 $end
$var reg 1 ?! p1_meta_last2 $end
$var reg 1 @! p1_meta_last3 $end
$var reg 4 A! p1_rd_wptr [3:0] $end
$var reg 4 B! p1_rd_rptr [3:0] $end
$var reg 5 C! p1_rd_count [4:0] $end
$var reg 1 D! p1_rd_fifo_full $end
$var reg 1 E! p1_rd_fifo_empty $end
$var reg 5 F! p1_rd_fifo_free [4:0] $end
$var reg 64 G! p1_rdata [63:0] $end
$var reg 1 H! p0_block_until_deassert $end
$var reg 1 I! p1_block_until_deassert $end
$var reg 32 J! staged_p1_starve_cnt [31:0] $end
$var reg 1 K! staged_p1_starve_asserted $end

$scope function size_to_bytes $end
$upscope $end

$scope function compute_incr_addr $end
$upscope $end

$scope function compute_wrap_addr $end
$upscope $end

$scope function word_index $end
$upscope $end

$scope begin mem_core $end
$upscope $end
$upscope $end
$upscope $end
$enddefinitions $end
#0
$dumpvars
0j
0k
0l
0m
bx n
bx o
bx p
bx q
bx r
0s
0v
b0 w
b0 x
b0 y
0z
0{
0|
b0 }
b0 ~
b0 !!
0"!
0#!
0$!
b0 %!
b0 &!
b0 '!
0(!
1)!
b10000 *!
bx +!
bx ,!
bx -!
bx .!
bx /!
bx 0!
01!
04!
b0 5!
b0 6!
b0 7!
08!
09!
0:!
b0 ;!
b0 <!
b0 =!
0>!
0?!
0@!
b0 A!
b0 B!
b0 C!
0D!
1E!
b10000 F!
bx G!
0H!
0I!
b0 J!
0K!
0!
0"
0#
bx 4
bx 5
bx 6
bx 7
bx 8
09
0;
0<
b0 =
b0 >
b0 ?
b0 @
0A
b0 B
b0 C
0D
0E
bx F
bx G
bx H
bx I
bx J
0K
0M
bx N
bx O
bx P
bx Q
xR
0S
0T
0U
b0 V
b0 W
b0 X
0Y
b0 Z
b0 [
b0 \
b0 ]
0^
0_
0`
0a
0b
b0 c
b0 d
b0 e
b0 f
0g
0h
0i
b100000 $
b1000000 %
b100 &
b10000000000 '
b10000 (
b11111010000 )
b1 *
b100 +
b1000 ,
b11 -
b100 .
b101 /
b0 t
b0 u
b0 2!
b0 3!
b0 :
b0 L
03
02
01
00
$end
#5000
1!
10
#8000
1"
12
#10000
0!
00
#15000
1!
10
#16000
0"
02
#20000
0!
00
#24000
1"
12
#25000
1!
10
#30000
0!
00
#32000
0"
02
#35000
1!
10
#40000
1"
0!
12
00
#45000
1!
10
#48000
0"
02
#50000
1#
0!
11
13
00
#55000
1!
10
#56000
1"
12
#60000
0!
00
#64000
0"
02
#65000
1!
10
#70000
0!
00
#72000
1"
12
#75000
1!
10
#80000
0"
0!
02
00
#85000
1!
10
b1 4
b1010000000 5
b1 6
b11 7
b1 8
19
#88000
1"
12
#90000
0!
00
#95000
1!
10
1E
#96000
0"
02
#100000
0!
00
#104000
1"
12
b101 F
b1001010000000 G
b1 H
b11 I
b1 J
1K
#105000
1!
10
1;
b1010000000 =
b1100010011000100111100001110000000000000000000000000000000000000 >
b11111111 ?
b11 @
b1 :
0E
#110000
0!
00
#112000
0"
02
#115000
1!
10
1<
1H!
#120000
1"
0!
12
00
1S
#125000
1!
10
0;
0<
1E
#128000
0"
02
#130000
0!
00
#135000
1!
10
1;
b1010001000 =
b1100010011000100111100001110000000000000000000000000000000000001 >
1A
b10 :
b1 B
1D
09
0H!
0E
#136000
1"
12
b1001010000000 N
b1100010011000100111100011110000000000000000000000000000000000000 O
b11111111 P
b11 Q
0R
1M
b1 L
0S
#140000
0!
00
#144000
0"
02
#145000
1!
10
0D
1<
1H!
#150000
0!
00
#152000
1"
12
b1001010000000 Z
b1100010011000100111100011110000000000000000000000000000000000000 [
b11111111 \
b11 ]
b101 V
1_
1T
#155000
1!
10
0;
1`
0<
#160000
0"
0!
02
00
#165000
1!
10
1a
0H!
#168000
1"
12
#170000
0!
00
#175000
1!
10
b1001010000000 c
b1100010011000100111100011110000000000000000000000000000000000000 d
b11111111 e
b11 f
1h
1b
1j
#176000
0"
02
#180000
0!
00
#184000
1"
12
1k
#185000
1!
10
1i
1I!
#190000
0!
00
#192000
0"
02
#195000
1!
10
0h
0i
#200000
1"
0!
12
00
1l
#205000
1!
10
0I!
#208000
0"
02
#210000
0!
00
#215000
1!
10
#216000
1"
12
1m
0T
0M
1S
#220000
0!
00
#224000
0"
02
#225000
1!
10
#230000
0!
00
#232000
1"
12
b1001010001000 N
b1100010011000100111100011110000000000000000000000000000000000001 O
1R
1M
b10 L
0S
#235000
1!
10
#240000
0"
0!
02
00
#245000
1!
10
#248000
1"
12
b1001010001000 Z
b1100010011000100111100011110000000000000000000000000000000000001 [
1^
1U
0_
1T
#250000
0!
00
#255000
1!
10
0`
#256000
0"
02
#260000
0!
00
#264000
1"
12
#265000
1!
10
0a
#270000
0!
00
#272000
0"
02
#275000
1!
10
b1001010001000 c
b1100010011000100111100011110000000000000000000000000000000000001 d
1g
1h
0b
0j
#280000
1"
0!
12
00
0k
#285000
1!
10
1i
1I!
#288000
0"
02
#290000
0!
00
#295000
1!
10
0h
0i
#296000
1"
12
0l
#300000
0!
00
#304000
0"
02
#305000
1!
10
0I!
#310000
0!
00
#312000
1"
12
0m
0T
0M
b101 W
1Y
0K
#315000
1!
10
#320000
0"
0!
02
00
#325000
1!
10
#328000
1"
12
0Y
#330000
0!
00
#335000
1!
10
#336000
0"
02
#340000
0!
00
#344000
1"
12
#345000
1!
10
#350000
0!
00
#352000
0"
02
#355000
1!
10
#360000
1"
0!
12
00
#365000
1!
10
#368000
0"
02
#370000
0!
00
#375000
1!
10
#376000
1"
12
#380000
0!
00
#384000
0"
02
#385000
1!
10
#390000
0!
00
#392000
1"
12
#395000
1!
10
#400000
0"
0!
02
00
#405000
1!
10
#408000
1"
12
#410000
0!
00
#415000
1!
10
#416000
0"
02
#420000
0!
00
#424000
1"
12
#425000
1!
10
b11 4
b1000000000 5
b11 6
19
b0 :
#430000
0!
00
#432000
0"
02
#435000
1!
10
1E
#440000
1"
0!
12
00
b111 ,!
b1001010000000 -!
b1 .!
b11 /!
b1 0!
11!
b10 3!
#445000
1!
10
1;
b1000000000 =
b1100010011000100111100001110101100000000000000000011000000000000 >
0A
b1 :
0E
#448000
0"
02
#450000
0!
00
#455000
1!
10
1<
1H!
#456000
1"
12
14!
b1001010000000 5!
18!
b111 ;!
b1 2!
#460000
0!
00
#464000
0"
02
#465000
1!
10
0;
0<
1E
#470000
0!
00
#472000
1"
12
04!
14!
b1001010001000 5!
1>!
b10 2!
19!
b111 <!
b1100010011000100111100011110000000000000000000000000000000000000 6!
#475000
1!
10
1;
b1000001000 =
b1100010011000100111100001110101100000000000000000011000000000001 >
b10 :
0H!
0E
#480000
0"
0!
02
00
#485000
1!
10
1<
1H!
#488000
1"
12
04!
08!
1:!
b111 =!
1?!
b1100010011000100111100011110000000000000000000000000000000000001 6!
b1100010011000100111100011110000000000000000000000000000000000000 7!
#490000
0!
00
#495000
1!
10
0;
0<
1E
#496000
0"
02
#500000
0!
00
#504000
1"
12
1@!
09!
b1 A!
b1 C!
b1100010011000100111100011110000000000000000000000000000000000001 7!
0E!
b1111 F!
b1100010011000100111100011110000000000000000000000000000000000000 G!
#505000
1!
10
1;
b1000010000 =
b1100010011000100111100001110101100000000000000000011000000000010 >
b11 :
0H!
0E
#510000
0!
00
#512000
0"
02
#515000
1!
10
1<
1H!
#520000
1"
0!
12
00
0:!
b10 A!
b1 B!
b1100010011000100111100011110000000000000000000000000000000000001 G!
#525000
1!
10
0;
0<
1E
#528000
0"
02
#530000
0!
00
#535000
1!
10
1;
b1000011000 =
b1100010011000100111100001110101100000000000000000011000000000011 >
1A
b100 :
b11 B
1D
09
0H!
0E
#536000
1"
12
01!
b10 B!
b0 C!
1E!
b10000 F!
bx G!
#540000
0!
00
#544000
0"
02
#545000
1!
10
0D
1<
1H!
#550000
0!
00
#552000
1"
12
#555000
1!
10
0;
0<
#560000
0"
0!
02
00
#565000
1!
10
0H!
#568000
1"
12
#570000
0!
00
#575000
1!
10
#576000
0"
02
#580000
0!
00
#584000
1"
12
b110 F
b1001011000000 G
b0 H
1K
b0 L
#585000
1!
10
b100 n
b1010000000 o
b1 p
b11 q
b1 r
1s
b10 u
#590000
0!
00
#592000
0"
02
#595000
1!
10
1v
b1010000000 w
1z
b100 }
b1 t
#600000
1"
0!
12
00
1S
#605000
1!
10
0v
1v
b1010001000 w
1"!
b10 t
1{
b100 ~
b1100010011000100111100001110000000000000000000000000000000000000 x
#608000
0"
02
#610000
0!
00
#615000
1!
10
0v
0z
1|
b100 !!
1#!
b1100010011000100111100001110000000000000000000000000000000000001 x
b1100010011000100111100001110000000000000000000000000000000000000 y
#616000
1"
12
b1001011000000 N
b1100010011000100111100011110000000000000000000000000000000000110 O
1M
b1 L
0S
#620000
0!
00
#624000
0"
02
#625000
1!
10
1$!
0{
b1 %!
b1 '!
b1100010011000100111100001110000000000000000000000000000000000001 y
0)!
b1111 *!
b1100010011000100111100001110000000000000000000000000000000000000 +!
#630000
0!
00
#632000
1"
12
b1001011000000 Z
b1100010011000100111100011110000000000000000000000000000000000110 [
b110 V
1_
1T
#635000
1!
10
0|
b10 %!
b1 &!
1`
b1100010011000100111100001110000000000000000000000000000000000001 +!
#640000
0"
0!
02
00
#645000
1!
10
0s
b10 &!
b0 '!
1a
1)!
b10000 *!
bx +!
#648000
1"
12
#650000
0!
00
#655000
1!
10
b1001011000000 c
b1100010011000100111100011110000000000000000000000000000000000110 d
1h
1b
1j
#656000
0"
02
#660000
0!
00
#664000
1"
12
1k
#665000
1!
10
1i
1I!
#670000
0!
00
#672000
0"
02
#675000
1!
10
0h
0i
#680000
1"
0!
12
00
1l
#685000
1!
10
0I!
#688000
0"
02
#690000
0!
00
#695000
1!
10
#696000
1"
12
1m
0T
0M
b110 W
1Y
0K
#700000
0!
00
#704000
0"
02
#705000
1!
10
#710000
0!
00
#712000
1"
12
0Y
#715000
1!
10
#720000
0"
0!
02
00
#725000
1!
10
#728000
1"
12
#730000
0!
00
#735000
1!
10
#736000
0"
02
#740000
0!
00
#744000
1"
12
#745000
1!
10
#750000
0!
00
#752000
0"
02
#755000
1!
10
#760000
1"
0!
12
00
#765000
1!
10
#768000
0"
02
#770000
0!
00
#775000
1!
10
#776000
1"
12
b1000 F
b1001000000000 G
b11 H
1K
b0 L
#780000
0!
00
#784000
0"
02
#785000
1!
10
#790000
0!
00
#792000
1"
12
1S
#795000
1!
10
#800000
0"
0!
02
00
#805000
1!
10
#808000
1"
12
b1001000000000 N
b1100010011000100111100011110101100000000000000001000000000000000 O
0R
1M
b1 L
0S
#810000
0!
00
#815000
1!
10
#816000
0"
02
#820000
0!
00
#824000
1"
12
b1001000000000 Z
b1100010011000100111100011110101100000000000000001000000000000000 [
0^
0U
b1000 V
0_
1T
#825000
1!
10
0`
#830000
0!
00
#832000
0"
02
#835000
1!
10
0a
#840000
1"
0!
12
00
#845000
1!
10
b1001000000000 c
b1100010011000100111100011110101100000000000000001000000000000000 d
0g
1h
0b
0j
#848000
0"
02
#850000
0!
00
#855000
1!
10
1i
1I!
#856000
1"
12
0k
#860000
0!
00
#864000
0"
02
#865000
1!
10
0h
0i
#870000
0!
00
#872000
1"
12
0l
#875000
1!
10
0I!
#880000
0"
0!
02
00
#885000
1!
10
#888000
1"
12
0m
0T
0M
1S
#890000
0!
00
#895000
1!
10
#896000
0"
02
#900000
0!
00
#904000
1"
12
b1001000001000 N
b1100010011000100111100011110101100000000000000001000000000000001 O
1M
b10 L
0S
#905000
1!
10
#910000
0!
00
#912000
0"
02
#915000
1!
10
#920000
1"
0!
12
00
b1001000001000 Z
b1100010011000100111100011110101100000000000000001000000000000001 [
1_
1T
#925000
1!
10
1`
#928000
0"
02
#930000
0!
00
#935000
1!
10
1a
#936000
1"
12
#940000
0!
00
#944000
0"
02
#945000
1!
10
b1001000001000 c
b1100010011000100111100011110101100000000000000001000000000000001 d
1h
1b
1j
#950000
0!
00
#952000
1"
12
1k
#955000
1!
10
1i
1I!
#960000
0"
0!
02
00
#965000
1!
10
0h
0i
#968000
1"
12
1l
#970000
0!
00
#975000
1!
10
0I!
#976000
0"
02
#980000
0!
00
#984000
1"
12
1m
0T
0M
1S
#985000
1!
10
#990000
0!
00
#992000
0"
02
#995000
1!
10
#1000000
1"
0!
12
00
b1001000010000 N
b1100010011000100111100011110101100000000000000001000000000000010 O
1M
b11 L
0S
#1005000
1!
10
#1008000
0"
02
#1010000
0!
00
#1015000
1!
10
#1016000
1"
12
b1001000010000 Z
b1100010011000100111100011110101100000000000000001000000000000010 [
0_
1T
#1020000
0!
00
#1024000
0"
02
#1025000
1!
10
0`
#1030000
0!
00
#1032000
1"
12
#1035000
1!
10
0a
#1040000
0"
0!
02
00
#1045000
1!
10
b1001000010000 c
b1100010011000100111100011110101100000000000000001000000000000010 d
1h
0b
0j
#1048000
1"
12
0k
#1050000
0!
00
#1055000
1!
10
1i
1I!
#1056000
0"
02
#1060000
0!
00
#1064000
1"
12
0l
#1065000
1!
10
0h
0i
#1070000
0!
00
#1072000
0"
02
#1075000
1!
10
0I!
#1080000
1"
0!
12
00
0m
0T
0M
1S
#1085000
1!
10
#1088000
0"
02
#1090000
0!
00
#1095000
1!
10
#1096000
1"
12
b1001000011000 N
b1100010011000100111100011110101100000000000000001000000000000011 O
1R
1M
b100 L
0S
#1100000
0!
00
#1104000
0"
02
#1105000
1!
10
#1110000
0!
00
#1112000
1"
12
b1001000011000 Z
b1100010011000100111100011110101100000000000000001000000000000011 [
1^
1U
1_
1T
#1115000
1!
10
1`
#1120000
0"
0!
02
00
#1125000
1!
10
1a
#1128000
1"
12
#1130000
0!
00
#1135000
1!
10
b1001000011000 c
b1100010011000100111100011110101100000000000000001000000000000011 d
1g
1h
1b
1j
#1136000
0"
02
#1140000
0!
00
#1144000
1"
12
1k
#1145000
1!
10
1i
1I!
#1150000
0!
00
#1152000
0"
02
#1155000
1!
10
0h
0i
#1160000
1"
0!
12
00
1l
#1165000
1!
10
0I!
#1168000
0"
02
#1170000
0!
00
#1175000
1!
10
#1176000
1"
12
1m
0T
0M
b1000 W
1Y
0K
#1180000
0!
00
#1184000
0"
02
#1185000
1!
10
#1190000
0!
00
#1192000
1"
12
0Y
