run/axi_mm_top.vcd
$date
	Tue Feb 03 23:33:05 2026
$end
$version
	QuestaSim Version 10.7c
$end
$timescale
	1ps
$end

$scope module axi_mm_top $end
$var reg 1 ! dma_clk $end
$var reg 1 " core_clk $end
$var reg 1 # rst_n $end

$scope module dut $end
$var parameter 32 $ ADDR_WIDTH $end
$var parameter 32 % DATA_WIDTH $end
$var parameter 32 & ID_WIDTH $end
$var parameter 32 ' DEPTH_WORDS $end
$var parameter 32 ( RD_FIFO_DEPTH $end
$var parameter 32 ) WR_AW_DEPTH $end
$var parameter 32 * WR_B_DEPTH $end
$var parameter 32 + STARVE_THRESHOLD $end
$var parameter 1 , ASSERT_ON_STARVE $end
$var parameter 32 - IDW $end
$var parameter 32 . BYTE_PER_WORD $end
$var parameter 32 / WORD_SHIFT $end
$var parameter 32 0 RD_PTR_W $end
$var parameter 32 1 RD_CNT_W $end
$var parameter 32 2 WR_AW_PTR_W $end
$var parameter 32 3 WR_AW_CNT_W $end
$var parameter 32 4 WR_B_PTR_W $end
$var parameter 32 5 WR_B_CNT_W $end
$var wire 1 6 dma_clk $end
$var wire 1 7 dma_rst_n $end
$var wire 1 8 core_clk $end
$var wire 1 9 core_rst_n $end
$var reg 4 : p0_awid [3:0] $end
$var reg 32 ; p0_awaddr [31:0] $end
$var reg 8 < p0_awlen [7:0] $end
$var reg 3 = p0_awsize [2:0] $end
$var reg 2 > p0_awburst [1:0] $end
$var reg 1 ? p0_aw_active $end
$var integer 32 @ p0_wbeat_cnt $end
$var reg 1 A p0_aw_wptr [0:0] $end
$var reg 1 B p0_aw_rptr [0:0] $end
$var reg 2 C p0_aw_count [1:0] $end
$var reg 1 D p0_aw_full $end
$var reg 1 E p0_aw_empty $end
$var reg 2 F p0_b_wptr [1:0] $end
$var reg 2 G p0_b_rptr [1:0] $end
$var reg 3 H p0_b_count [2:0] $end
$var reg 1 I p0_b_full $end
$var reg 1 J p0_b_empty $end
$var reg 1 K p0_b_out_valid $end
$var reg 6 L p0_b_out [5:0] $end
$var reg 1 M p0_wr_req $end
$var reg 1 N p0_wr_consumed $end
$var reg 32 O p0_wr_byte_addr [31:0] $end
$var reg 64 P p0_wr_wdata [63:0] $end
$var reg 8 Q p0_wr_wstrb [7:0] $end
$var reg 3 R p0_wr_size [2:0] $end
$var reg 1 S p0_wr_is_last $end
$var reg 1 T p0_w_hs $end
$var reg 4 U p1_awid [3:0] $end
$var reg 32 V p1_awaddr [31:0] $end
$var reg 8 W p1_awlen [7:0] $end
$var reg 3 X p1_awsize [2:0] $end
$var reg 2 Y p1_awburst [1:0] $end
$var reg 1 Z p1_aw_active $end
$var integer 32 [ p1_wbeat_cnt $end
$var reg 1 \ p1_aw_wptr [0:0] $end
$var reg 1 ] p1_aw_rptr [0:0] $end
$var reg 2 ^ p1_aw_count [1:0] $end
$var reg 1 _ p1_aw_full $end
$var reg 1 ` p1_aw_empty $end
$var reg 2 a p1_b_wptr [1:0] $end
$var reg 2 b p1_b_rptr [1:0] $end
$var reg 3 c p1_b_count [2:0] $end
$var reg 1 d p1_b_full $end
$var reg 1 e p1_b_empty $end
$var reg 1 f p1_b_out_valid $end
$var reg 6 g p1_b_out [5:0] $end
$var reg 1 h p1_local_wr_valid $end
$var reg 32 i p1_local_wr_byte_addr [31:0] $end
$var reg 64 j p1_local_wr_wdata [63:0] $end
$var reg 8 k p1_local_wr_wstrb [7:0] $end
$var reg 3 l p1_local_wr_size [2:0] $end
$var reg 1 m p1_local_wr_is_last $end
$var reg 1 n p1_w_hs $end
$var reg 1 o p1_req_outstanding $end
$var reg 1 p p1_sent_is_last $end
$var reg 4 q p1_sent_awid [3:0] $end
$var reg 32 r bridge_p1_addr_core [31:0] $end
$var reg 64 s bridge_p1_wdata_core [63:0] $end
$var reg 8 t bridge_p1_wstrb_core [7:0] $end
$var reg 3 u bridge_p1_size_core [2:0] $end
$var reg 1 v bridge_p1_is_last_core $end
$var reg 1 w p1_req_toggle_core $end
$var reg 1 x p1_req_toggle_sync1_dma $end
$var reg 1 y p1_req_toggle_sync2_dma $end
$var reg 1 z p1_req_toggle_last_seen_dma $end
$var reg 32 { staged_p1_addr_dma [31:0] $end
$var reg 64 | staged_p1_wdata_dma [63:0] $end
$var reg 8 } staged_p1_wstrb_dma [7:0] $end
$var reg 3 ~ staged_p1_size_dma [2:0] $end
$var reg 1 !! staged_p1_is_last_dma $end
$var reg 1 "! staged_p1_valid_dma $end
$var reg 1 #! staged_p1_consumed $end
$var reg 1 $! p1_ack_toggle_dma $end
$var reg 1 %! p1_ack_toggle_sync1_core $end
$var reg 1 &! p1_ack_toggle_sync2_core $end
$var reg 1 '! p1_ack_toggle_last_seen_core $end
$var reg 4 (! p0_arid [3:0] $end
$var reg 32 )! p0_araddr [31:0] $end
$var reg 8 *! p0_arlen [7:0] $end
$var reg 3 +! p0_arsize [2:0] $end
$var reg 2 ,! p0_arburst [1:0] $end
$var reg 1 -! p0_ar_active $end
$var integer 32 .! p0_issue_idx $end
$var integer 32 /! p0_total_beats $end
$var reg 1 0! p0_rd_issue $end
$var reg 32 1! p0_rd_addr [31:0] $end
$var reg 64 2! p0_rd_q1 [63:0] $end
$var reg 64 3! p0_rd_q2 [63:0] $end
$var reg 1 4! p0_meta_v1 $end
$var reg 1 5! p0_meta_v2 $end
$var reg 1 6! p0_meta_v3 $end
$var reg 4 7! p0_meta_rid1 [3:0] $end
$var reg 4 8! p0_meta_rid2 [3:0] $end
$var reg 4 9! p0_meta_rid3 [3:0] $end
$var reg 1 :! p0_meta_last1 $end
$var reg 1 ;! p0_meta_last2 $end
$var reg 1 <! p0_meta_last3 $end
$var reg 4 =! p0_rd_wptr [3:0] $end
$var reg 4 >! p0_rd_rptr [3:0] $end
$var reg 5 ?! p0_rd_count [4:0] $end
$var reg 1 @! p0_rd_fifo_full $end
$var reg 1 A! p0_rd_fifo_empty $end
$var reg 5 B! p0_rd_fifo_free [4:0] $end
$var reg 64 C! p0_rdata [63:0] $end
$var reg 4 D! p1_arid [3:0] $end
$var reg 32 E! p1_araddr [31:0] $end
$var reg 8 F! p1_arlen [7:0] $end
$var reg 3 G! p1_arsize [2:0] $end
$var reg 2 H! p1_arburst [1:0] $end
$var reg 1 I! p1_ar_active $end
$var integer 32 J! p1_issue_idx $end
$var integer 32 K! p1_total_beats $end
$var reg 1 L! p1_rd_issue $end
$var reg 32 M! p1_rd_addr [31:0] $end
$var reg 64 N! p1_rd_q1 [63:0] $end
$var reg 64 O! p1_rd_q2 [63:0] $end
$var reg 1 P! p1_meta_v1 $end
$var reg 1 Q! p1_meta_v2 $end
$var reg 1 R! p1_meta_v3 $end
$var reg 4 S! p1_meta_rid1 [3:0] $end
$var reg 4 T! p1_meta_rid2 [3:0] $end
$var reg 4 U! p1_meta_rid3 [3:0] $end
$var reg 1 V! p1_meta_last1 $end
$var reg 1 W! p1_meta_last2 $end
$var reg 1 X! p1_meta_last3 $end
$var reg 4 Y! p1_rd_wptr [3:0] $end
$var reg 4 Z! p1_rd_rptr [3:0] $end
$var reg 5 [! p1_rd_count [4:0] $end
$var reg 1 \! p1_rd_fifo_full $end
$var reg 1 ]! p1_rd_fifo_empty $end
$var reg 5 ^! p1_rd_fifo_free [4:0] $end
$var reg 64 _! p1_rdata [63:0] $end
$var reg 1 `! p0_block_until_deassert $end
$var reg 1 a! p1_block_until_deassert $end
$var reg 32 b! staged_p1_starve_cnt [31:0] $end
$var reg 1 c! staged_p1_starve_asserted $end

$scope function size_to_bytes $end
$upscope $end

$scope function compute_incr_addr $end
$upscope $end

$scope function compute_wrap_addr $end
$upscope $end

$scope function word_index $end
$upscope $end

$scope begin mem_core $end
$upscope $end
$upscope $end
$upscope $end
$enddefinitions $end
#0
$dumpvars
bx :
bx ;
bx <
bx =
bx >
0?
b0 A
b0 B
b0 C
0D
1E
b0 F
b0 G
b0 H
0I
1J
0K
b0 L
0M
0N
b0 O
b0 P
b0 Q
b0 R
0S
0T
bx U
bx V
bx W
bx X
bx Y
0Z
b0 \
b0 ]
b0 ^
0_
1`
b0 a
b0 b
b0 c
0d
1e
0f
b0 g
0h
bx i
bx j
bx k
bx l
xm
0n
0o
0p
b0 q
b0 r
b0 s
b0 t
b0 u
0v
0w
0x
0y
0z
b0 {
b0 |
b0 }
b0 ~
0!!
0"!
0#!
0$!
0%!
0&!
0'!
bx (!
bx )!
bx *!
bx +!
bx ,!
0-!
00!
b0 1!
b0 2!
b0 3!
04!
05!
06!
b0 7!
b0 8!
b0 9!
0:!
0;!
0<!
b0 =!
b0 >!
b0 ?!
0@!
1A!
b10000 B!
bx C!
bx D!
bx E!
bx F!
bx G!
bx H!
0I!
0L!
b0 M!
b0 N!
b0 O!
0P!
0Q!
0R!
b0 S!
b0 T!
b0 U!
0V!
0W!
0X!
b0 Y!
b0 Z!
b0 [!
0\!
1]!
b10000 ^!
bx _!
0`!
0a!
b0 b!
0c!
0!
0"
0#
b100000 $
b1000000 %
b100 &
b10000000000 '
b10000 (
b10 )
b100 *
b11111010000 +
b1 ,
b100 -
b1000 .
b11 /
b100 0
b101 1
b1 2
b10 3
b10 4
b11 5
b0 @
b0 [
b0 .!
b0 /!
b0 J!
b0 K!
09
08
07
06
$end
#5000
1!
16
#8000
1"
18
#10000
0!
06
#15000
1!
16
#16000
0"
08
#20000
0!
06
#24000
1"
18
#25000
1!
16
#30000
0!
06
#32000
0"
08
#35000
1!
16
#40000
1"
0!
18
06
#45000
1!
16
#48000
0"
08
#50000
1#
0!
17
19
06
#55000
1!
16
#56000
1"
18
#60000
0!
06
#64000
0"
08
#65000
1!
16
#70000
0!
06
#72000
1"
18
#75000
1!
16
#80000
0"
0!
08
06
#85000
1!
16
b1 A
b1 C
0E
#88000
1"
18
#90000
0!
06
#95000
1!
16
b1 :
b1000000000 ;
b11 <
b11 =
b1 >
1?
b1 B
b0 C
1E
#96000
0"
08
#100000
0!
06
#104000
1"
18
b1 \
b1 ^
0`
#105000
1!
16
b0 A
b1 C
0E
#110000
0!
06
#112000
0"
08
#115000
1!
16
1T
#120000
1"
0!
18
06
b1 U
b1001000000000 V
b11 W
b11 X
b1 Y
1Z
b1 ]
b0 ^
1`
#125000
1!
16
1M
b1000000000 O
b1100100010100000000000000000000000000000000000000000000000000000 P
b11111111 Q
b11 R
b1 @
0T
#128000
0"
08
#130000
0!
06
#135000
1!
16
1N
1`!
#136000
1"
18
b0 \
b1 ^
0`
#140000
0!
06
#144000
0"
08
#145000
1!
16
0M
0N
1T
#150000
0!
06
#152000
1"
18
1n
#155000
1!
16
1M
b1000001000 O
b1100100010100000000000000000000000000000000000000000000000000001 P
b10 @
0`!
0T
#160000
0"
0!
08
06
#165000
1!
16
1N
1`!
#168000
1"
18
b1001000000000 i
b1100100010100001000000000000000000000000000000000000000000000000 j
b11111111 k
b11 l
0m
1h
b1 [
0n
#170000
0!
06
#175000
1!
16
0M
0N
1T
#176000
0"
08
#180000
0!
06
#184000
1"
18
b1001000000000 r
b1100100010100001000000000000000000000000000000000000000000000000 s
b11111111 t
b11 u
b1 q
1w
1o
#185000
1!
16
1M
b1000010000 O
b1100100010100000000000000000000000000000000000000000000000000010 P
b11 @
1x
0`!
0T
#190000
0!
06
#192000
0"
08
#195000
1!
16
1y
1N
1`!
#200000
1"
0!
18
06
#205000
1!
16
0M
0N
b1001000000000 {
b1100100010100001000000000000000000000000000000000000000000000000 |
b11111111 }
b11 ~
1"!
1z
1$!
1T
#208000
0"
08
#210000
0!
06
#215000
1!
16
1M
b1000011000 O
b1100100010100000000000000000000000000000000000000000000000000011 P
1S
b100 @
b1 F
b1 H
0?
0`!
1#!
1a!
0J
0T
#216000
1"
18
1%!
#220000
0!
06
#224000
0"
08
#225000
1!
16
b10 :
b1100000000 ;
1?
b0 @
b0 B
b0 C
b100 L
1K
0"!
0#!
1N
1`!
b1 b!
1E
#230000
0!
06
#232000
1"
18
1&!
#235000
1!
16
0M
b1 G
b0 H
b0 L
0K
0N
0a!
b0 b!
1J
1T
#240000
0"
0!
08
06
#245000
1!
16
1M
b1100000000 O
b1100100010110000000000000000000000000000000000000000000000000000 P
0S
b1 @
0`!
0T
#248000
1"
18
1'!
0o
0h
1n
#250000
0!
06
#255000
1!
16
1N
1`!
#256000
0"
08
#260000
0!
06
#264000
1"
18
b1001000001000 i
b1100100010100001000000000000000000000000000000000000000000000001 j
1h
b10 [
0n
#265000
1!
16
0M
0N
1T
#270000
0!
06
#272000
0"
08
#275000
1!
16
1M
b1100001000 O
b1100100010110000000000000000000000000000000000000000000000000001 P
b10 @
0`!
0T
#280000
1"
0!
18
06
b1001000001000 r
b1100100010100001000000000000000000000000000000000000000000000001 s
0w
1o
#285000
1!
16
0x
1N
1`!
#288000
0"
08
#290000
0!
06
#295000
1!
16
0M
0N
0y
1T
#296000
1"
18
#300000
0!
06
#304000
0"
08
#305000
1!
16
1M
b1100010000 O
b1100100010110000000000000000000000000000000000000000000000000010 P
b11 @
b1001000001000 {
b1100100010100001000000000000000000000000000000000000000000000001 |
1"!
0z
0$!
0`!
0T
#310000
0!
06
#312000
1"
18
0%!
#315000
1!
16
1N
1`!
b1 b!
#320000
0"
0!
08
06
#325000
1!
16
0M
0N
1#!
1a!
b0 b!
1T
#328000
1"
18
0&!
#330000
0!
06
#335000
1!
16
1M
b1100011000 O
b1100100010110000000000000000000000000000000000000000000000000011 P
1S
b100 @
b10 F
b1 H
0?
0"!
0#!
0`!
0J
0T
#336000
0"
08
#340000
0!
06
#344000
1"
18
0'!
0o
0h
1n
#345000
1!
16
b1000 L
1K
0a!
1N
1`!
#350000
0!
06
#352000
0"
08
#355000
1!
16
0M
b10 G
b0 H
b0 L
0K
0N
1J
#360000
1"
0!
18
06
b1001000010000 i
b1100100010100001000000000000000000000000000000000000000000000010 j
1h
b11 [
0n
#365000
1!
16
0`!
#368000
0"
08
#370000
0!
06
#375000
1!
16
#376000
1"
18
b1001000010000 r
b1100100010100001000000000000000000000000000000000000000000000010 s
1w
1o
#380000
0!
06
#384000
0"
08
#385000
1!
16
1x
#390000
0!
06
#392000
1"
18
#395000
1!
16
b11 (!
b1000000000 )!
b11 *!
b11 +!
b1 ,!
1-!
b100 /!
1y
#400000
0"
0!
08
06
#405000
1!
16
10!
b1000000000 1!
14!
b11 7!
b1 .!
b1001000010000 {
b1100100010100001000000000000000000000000000000000000000000000010 |
1"!
1z
1$!
#408000
1"
18
1%!
#410000
0!
06
#415000
1!
16
00!
10!
b1000001000 1!
b10 .!
15!
b11 8!
1#!
1a!
b1100100010100000000000000000000000000000000000000000000000000000 2!
#416000
0"
08
#420000
0!
06
#424000
1"
18
1&!
#425000
1!
16
00!
10!
b1000010000 1!
b11 .!
16!
b11 9!
0"!
0#!
b1100100010100000000000000000000000000000000000000000000000000001 2!
b1100100010100000000000000000000000000000000000000000000000000000 3!
#430000
0!
06
#432000
0"
08
#435000
1!
16
00!
10!
b1000011000 1!
1:!
b100 .!
b1 =!
b1 ?!
0a!
b1100100010100000000000000000000000000000000000000000000000000010 2!
b1100100010100000000000000000000000000000000000000000000000000001 3!
0A!
b1111 B!
b1100100010100000000000000000000000000000000000000000000000000000 C!
#440000
1"
0!
18
06
1'!
0o
0h
1n
#445000
1!
16
00!
04!
1;!
b10 =!
b1 >!
b1100100010100000000000000000000000000000000000000000000000000011 2!
b1100100010100000000000000000000000000000000000000000000000000010 3!
b1100100010100000000000000000000000000000000000000000000000000001 C!
#448000
0"
08
#450000
0!
06
#455000
1!
16
1<!
05!
b11 =!
b10 >!
b1100100010100000000000000000000000000000000000000000000000000011 3!
b1100100010100000000000000000000000000000000000000000000000000010 C!
#456000
1"
18
b1001000011000 i
b1100100010100001000000000000000000000000000000000000000000000011 j
1m
1h
b100 [
0n
#460000
0!
06
#464000
0"
08
#465000
1!
16
06!
b100 =!
b11 >!
b1100100010100000000000000000000000000000000000000000000000000011 C!
#470000
0!
06
#472000
1"
18
b1001000011000 r
b1100100010100001000000000000000000000000000000000000000000000011 s
1v
1p
0w
1o
#475000
1!
16
0-!
b100 >!
b0 ?!
0x
1A!
b10000 B!
bx C!
#480000
0"
0!
08
06
#485000
1!
16
0y
#488000
1"
18
#490000
0!
06
#495000
1!
16
b1001000011000 {
b1100100010100001000000000000000000000000000000000000000000000011 |
1!!
1"!
0z
0$!
#496000
0"
08
#500000
0!
06
#504000
1"
18
0%!
#505000
1!
16
b100 (!
b1100000000 )!
1-!
b0 .!
1#!
1a!
#510000
0!
06
#512000
0"
08
#515000
1!
16
10!
b1100000000 1!
14!
b100 7!
0:!
b1 .!
0"!
0#!
#520000
1"
0!
18
06
0&!
#525000
1!
16
00!
10!
b1100001000 1!
b10 .!
15!
b100 8!
0;!
0a!
b1100100010110000000000000000000000000000000000000000000000000000 2!
#528000
0"
08
#530000
0!
06
#535000
1!
16
00!
10!
b1100010000 1!
b11 .!
16!
b100 9!
0<!
b1100100010110000000000000000000000000000000000000000000000000001 2!
b1100100010110000000000000000000000000000000000000000000000000000 3!
#536000
1"
18
0'!
0o
0h
b1 a
b1 c
0Z
0e
#540000
0!
06
#544000
0"
08
#545000
1!
16
00!
10!
b1100011000 1!
1:!
b100 .!
b101 =!
b1 ?!
b1100100010110000000000000000000000000000000000000000000000000010 2!
b1100100010110000000000000000000000000000000000000000000000000001 3!
0A!
b1111 B!
b1100100010110000000000000000000000000000000000000000000000000000 C!
#550000
0!
06
#552000
1"
18
b10 U
b1001100000000 V
1Z
b0 [
b0 ]
b0 ^
b100 g
1f
1`
1n
#555000
1!
16
00!
04!
1;!
b110 =!
b101 >!
b1100100010110000000000000000000000000000000000000000000000000011 2!
b1100100010110000000000000000000000000000000000000000000000000010 3!
b1100100010110000000000000000000000000000000000000000000000000001 C!
#560000
0"
0!
08
06
#565000
1!
16
1<!
05!
b111 =!
b110 >!
b1100100010110000000000000000000000000000000000000000000000000011 3!
b1100100010110000000000000000000000000000000000000000000000000010 C!
#568000
1"
18
b1001100000000 i
b1100100010110001000000000000000000000000000000000000000000000000 j
0m
1h
b1 [
b1 b
b0 c
b0 g
0f
1e
0n
#570000
0!
06
#575000
1!
16
06!
b1000 =!
b111 >!
b1100100010110000000000000000000000000000000000000000000000000011 C!
#576000
0"
08
#580000
0!
06
#584000
1"
18
b1001100000000 r
b1100100010110001000000000000000000000000000000000000000000000000 s
0v
0p
b10 q
1w
1o
#585000
1!
16
0-!
b1000 >!
b0 ?!
1x
1A!
b10000 B!
bx C!
#590000
0!
06
#592000
0"
08
#595000
1!
16
1y
#600000
1"
0!
18
06
#605000
1!
16
b1001100000000 {
b1100100010110001000000000000000000000000000000000000000000000000 |
0!!
1"!
1z
1$!
#608000
0"
08
#610000
0!
06
#615000
1!
16
1#!
1a!
#616000
1"
18
1%!
#620000
0!
06
#624000
0"
08
#625000
1!
16
0"!
0#!
#630000
0!
06
#632000
1"
18
1&!
#635000
1!
16
0a!
#640000
0"
0!
08
06
#645000
1!
16
#648000
1"
18
1'!
0o
0h
1n
#650000
0!
06
#655000
1!
16
#656000
0"
08
#660000
0!
06
#664000
1"
18
b1001100001000 i
b1100100010110001000000000000000000000000000000000000000000000001 j
1h
b10 [
0n
#665000
1!
16
#670000
0!
06
#672000
0"
08
#675000
1!
16
#680000
1"
0!
18
06
b1001100001000 r
b1100100010110001000000000000000000000000000000000000000000000001 s
0w
1o
#685000
1!
16
0x
#688000
0"
08
#690000
0!
06
#695000
1!
16
0y
#696000
1"
18
#700000
0!
06
#704000
0"
08
#705000
1!
16
b1001100001000 {
b1100100010110001000000000000000000000000000000000000000000000001 |
1"!
0z
0$!
#710000
0!
06
#712000
1"
18
0%!
#715000
1!
16
1#!
1a!
#720000
0"
0!
08
06
#725000
1!
16
0"!
0#!
#728000
1"
18
0&!
#730000
0!
06
#735000
1!
16
0a!
#736000
0"
08
#740000
0!
06
#744000
1"
18
0'!
0o
0h
1n
#745000
1!
16
#750000
0!
06
#752000
0"
08
#755000
1!
16
#760000
1"
0!
18
06
b1001100010000 i
b1100100010110001000000000000000000000000000000000000000000000010 j
1h
b11 [
0n
#765000
1!
16
#768000
0"
08
#770000
0!
06
#775000
1!
16
#776000
1"
18
b1001100010000 r
b1100100010110001000000000000000000000000000000000000000000000010 s
1w
1o
#780000
0!
06
#784000
0"
08
#785000
1!
16
1x
#790000
0!
06
#792000
1"
18
#795000
1!
16
1y
#800000
0"
0!
08
06
#805000
1!
16
b1001100010000 {
b1100100010110001000000000000000000000000000000000000000000000010 |
1"!
1z
1$!
#808000
1"
18
1%!
#810000
0!
06
#815000
1!
16
1#!
1a!
#816000
0"
08
#820000
0!
06
#824000
1"
18
1&!
#825000
1!
16
0"!
0#!
#830000
0!
06
#832000
0"
08
#835000
1!
16
0a!
#840000
1"
0!
18
06
1'!
0o
0h
1n
#845000
1!
16
#848000
0"
08
#850000
0!
06
#855000
1!
16
#856000
1"
18
b1001100011000 i
b1100100010110001000000000000000000000000000000000000000000000011 j
1m
1h
b100 [
0n
#860000
0!
06
#864000
0"
08
#865000
1!
16
#870000
0!
06
#872000
1"
18
b1001100011000 r
b1100100010110001000000000000000000000000000000000000000000000011 s
1v
1p
0w
1o
#875000
1!
16
0x
#880000
0"
0!
08
06
#885000
1!
16
0y
#888000
1"
18
#890000
0!
06
#895000
1!
16
b1001100011000 {
b1100100010110001000000000000000000000000000000000000000000000011 |
1!!
1"!
0z
0$!
#896000
0"
08
#900000
0!
06
#904000
1"
18
0%!
#905000
1!
16
1#!
1a!
#910000
0!
06
#912000
0"
08
#915000
1!
16
0"!
0#!
#920000
1"
0!
18
06
0&!
#925000
1!
16
0a!
#928000
0"
08
#930000
0!
06
#935000
1!
16
#936000
1"
18
0'!
0o
0h
b10 a
b1 c
0Z
0e
#940000
0!
06
#944000
0"
08
#945000
1!
16
#950000
0!
06
#952000
1"
18
b1000 g
1f
#955000
1!
16
#960000
0"
0!
08
06
#965000
1!
16
#968000
1"
18
b10 b
b0 c
b0 g
0f
1e
#970000
0!
06
#975000
1!
16
#976000
0"
08
#980000
0!
06
#984000
1"
18
#985000
1!
16
#990000
0!
06
#992000
0"
08
#995000
1!
16
#1000000
1"
0!
18
06
#1005000
1!
16
#1008000
0"
08
#1010000
0!
06
#1015000
1!
16
#1016000
1"
18
#1020000
0!
06
#1024000
0"
08
#1025000
1!
16
#1030000
0!
06
#1032000
1"
18
b11 D!
b1001000000000 E!
b11 F!
b11 G!
b1 H!
1I!
b100 K!
#1035000
1!
16
#1040000
0"
0!
08
06
#1045000
1!
16
#1048000
1"
18
1L!
b1001000000000 M!
1P!
b11 S!
b1 J!
#1050000
0!
06
#1055000
1!
16
#1056000
0"
08
#1060000
0!
06
#1064000
1"
18
0L!
1L!
b1001000001000 M!
b10 J!
1Q!
b11 T!
b1100100010100001000000000000000000000000000000000000000000000000 N!
#1065000
1!
16
#1070000
0!
06
#1072000
0"
08
#1075000
1!
16
#1080000
1"
0!
18
06
0L!
1L!
b1001000010000 M!
b11 J!
1R!
b11 U!
b1100100010100001000000000000000000000000000000000000000000000001 N!
b1100100010100001000000000000000000000000000000000000000000000000 O!
#1085000
1!
16
#1088000
0"
08
#1090000
0!
06
#1095000
1!
16
#1096000
1"
18
0L!
1L!
b1001000011000 M!
1V!
b100 J!
b1 Y!
b1 [!
b1100100010100001000000000000000000000000000000000000000000000010 N!
b1100100010100001000000000000000000000000000000000000000000000001 O!
0]!
b1111 ^!
b1100100010100001000000000000000000000000000000000000000000000000 _!
#1100000
0!
06
#1104000
0"
08
#1105000
1!
16
#1110000
0!
06
#1112000
1"
18
0L!
0P!
1W!
b10 Y!
b1 Z!
b1100100010100001000000000000000000000000000000000000000000000011 N!
b1100100010100001000000000000000000000000000000000000000000000010 O!
b1100100010100001000000000000000000000000000000000000000000000001 _!
#1115000
1!
16
#1120000
0"
0!
08
06
#1125000
1!
16
#1128000
1"
18
1X!
0Q!
b11 Y!
b10 Z!
b1100100010100001000000000000000000000000000000000000000000000011 O!
b1100100010100001000000000000000000000000000000000000000000000010 _!
#1130000
0!
06
#1135000
1!
16
#1136000
0"
08
#1140000
0!
06
#1144000
1"
18
0R!
b100 Y!
b11 Z!
b1100100010100001000000000000000000000000000000000000000000000011 _!
#1145000
1!
16
#1150000
0!
06
#1152000
0"
08
#1155000
1!
16
#1160000
1"
0!
18
06
0I!
b100 Z!
b0 [!
1]!
b10000 ^!
bx _!
#1165000
1!
16
#1168000
0"
08
#1170000
0!
06
#1175000
1!
16
#1176000
1"
18
#1180000
0!
06
#1184000
0"
08
#1185000
1!
16
#1190000
0!
06
#1192000
1"
18
#1195000
1!
16
#1200000
0"
0!
08
06
#1205000
1!
16
#1208000
1"
18
b100 D!
b1001100000000 E!
1I!
b0 J!
#1210000
0!
06
#1215000
1!
16
#1216000
0"
08
#1220000
0!
06
#1224000
1"
18
1L!
b1001100000000 M!
1P!
b100 S!
0V!
b1 J!
#1225000
1!
16
#1230000
0!
06
#1232000
0"
08
#1235000
1!
16
#1240000
1"
0!
18
06
0L!
1L!
b1001100001000 M!
b10 J!
1Q!
b100 T!
0W!
b1100100010110001000000000000000000000000000000000000000000000000 N!
#1245000
1!
16
#1248000
0"
08
#1250000
0!
06
#1255000
1!
16
#1256000
1"
18
0L!
1L!
b1001100010000 M!
b11 J!
1R!
b100 U!
0X!
b1100100010110001000000000000000000000000000000000000000000000001 N!
b1100100010110001000000000000000000000000000000000000000000000000 O!
#1260000
0!
06
#1264000
0"
08
#1265000
1!
16
#1270000
0!
06
#1272000
1"
18
0L!
1L!
b1001100011000 M!
1V!
b100 J!
b101 Y!
b1 [!
b1100100010110001000000000000000000000000000000000000000000000010 N!
b1100100010110001000000000000000000000000000000000000000000000001 O!
0]!
b1111 ^!
b1100100010110001000000000000000000000000000000000000000000000000 _!
#1275000
1!
16
#1280000
0"
0!
08
06
#1285000
1!
16
#1288000
1"
18
0L!
0P!
1W!
b110 Y!
b101 Z!
b1100100010110001000000000000000000000000000000000000000000000011 N!
b1100100010110001000000000000000000000000000000000000000000000010 O!
b1100100010110001000000000000000000000000000000000000000000000001 _!
#1290000
0!
06
#1295000
1!
16
#1296000
0"
08
#1300000
0!
06
#1304000
1"
18
1X!
0Q!
b111 Y!
b110 Z!
b1100100010110001000000000000000000000000000000000000000000000011 O!
b1100100010110001000000000000000000000000000000000000000000000010 _!
#1305000
1!
16
#1310000
0!
06
#1312000
0"
08
#1315000
1!
16
#1320000
1"
0!
18
06
0R!
b1000 Y!
b111 Z!
b1100100010110001000000000000000000000000000000000000000000000011 _!
#1325000
1!
16
#1328000
0"
08
#1330000
0!
06
#1335000
1!
16
#1336000
1"
18
0I!
b1000 Z!
b0 [!
1]!
b10000 ^!
bx _!
