run/axi_mm_top.vcd
$date
	Sun Dec 21 21:44:40 2025
$end
$version
	QuestaSim Version 10.7c
$end
$timescale
	1ps
$end

$scope module axi_mm_top $end
$var reg 1 ! dma_clk $end
$var reg 1 " core_clk $end
$var reg 1 # rst_n $end

$scope module dut $end
$var parameter 32 $ ADDR_WIDTH $end
$var parameter 32 % DATA_WIDTH $end
$var parameter 32 & ID_WIDTH $end
$var parameter 32 ' DEPTH_WORDS $end
$var parameter 32 ( STARVE_THRESHOLD $end
$var parameter 1 ) ASSERT_ON_STARVE $end
$var parameter 32 * IDW $end
$var parameter 32 + BYTE_PER_WORD $end
$var parameter 32 , MEM_BYTES $end
$var parameter 32 - ADDR_IDX_W $end
$var wire 1 . dma_clk $end
$var wire 1 / dma_rst_n $end
$var wire 1 0 core_clk $end
$var wire 1 1 core_rst_n $end
$var reg 4 2 p0_awid [3:0] $end
$var reg 32 3 p0_awaddr [31:0] $end
$var reg 8 4 p0_awlen [7:0] $end
$var reg 3 5 p0_awsize [2:0] $end
$var reg 2 6 p0_awburst [1:0] $end
$var reg 1 7 p0_aw_active $end
$var reg 1 8 p0_wr_req $end
$var reg 32 9 p0_wr_byte_addr [31:0] $end
$var reg 64 : p0_wr_wdata [63:0] $end
$var reg 8 ; p0_wr_wstrb [7:0] $end
$var reg 3 < p0_wr_size [2:0] $end
$var reg 1 = p0_wr_is_last $end
$var integer 32 > p0_wbeat_cnt $end
$var reg 4 ? p0_bid [3:0] $end
$var reg 2 @ p0_bresp [1:0] $end
$var reg 1 A p0_bvalid $end
$var reg 4 B p0_arid [3:0] $end
$var reg 32 C p0_araddr [31:0] $end
$var reg 8 D p0_arlen [7:0] $end
$var reg 3 E p0_arsize [2:0] $end
$var reg 2 F p0_arburst [1:0] $end
$var reg 1 G p0_ar_active $end
$var integer 32 H p0_rbeat_cnt $end
$var reg 1 I p0_rvalid $end
$var reg 64 J p0_rdata [63:0] $end
$var reg 4 K p0_rid [3:0] $end
$var reg 1 L p0_rlast $end
$var reg 4 M p1_awid [3:0] $end
$var reg 32 N p1_awaddr [31:0] $end
$var reg 8 O p1_awlen [7:0] $end
$var reg 3 P p1_awsize [2:0] $end
$var reg 2 Q p1_awburst [1:0] $end
$var reg 1 R p1_aw_active $end
$var reg 1 S p1_local_wr_req $end
$var reg 32 T p1_local_wr_byte_addr [31:0] $end
$var reg 64 U p1_local_wr_wdata [63:0] $end
$var reg 8 V p1_local_wr_wstrb [7:0] $end
$var reg 3 W p1_local_wr_size [2:0] $end
$var reg 1 X p1_local_wr_is_last $end
$var integer 32 Y p1_wbeat_cnt $end
$var reg 4 Z p1_bid [3:0] $end
$var reg 2 [ p1_bresp [1:0] $end
$var reg 1 \ p1_bvalid $end
$var reg 4 ] p1_arid [3:0] $end
$var reg 32 ^ p1_araddr [31:0] $end
$var reg 8 _ p1_arlen [7:0] $end
$var reg 3 ` p1_arsize [2:0] $end
$var reg 2 a p1_arburst [1:0] $end
$var reg 1 b p1_ar_active $end
$var integer 32 c p1_rbeat_cnt $end
$var reg 1 d p1_rvalid $end
$var reg 64 e p1_rdata [63:0] $end
$var reg 4 f p1_rid [3:0] $end
$var reg 1 g p1_rlast $end
$var reg 32 h bridge_p1_addr_core [31:0] $end
$var reg 64 i bridge_p1_wdata_core [63:0] $end
$var reg 8 j bridge_p1_wstrb_core [7:0] $end
$var reg 3 k bridge_p1_size_core [2:0] $end
$var reg 1 l bridge_p1_is_last_core $end
$var reg 1 m p1_req_toggle_core $end
$var reg 1 n p1_req_toggle_sync1_dma $end
$var reg 1 o p1_req_toggle_sync2_dma $end
$var reg 1 p p1_req_toggle_last_seen_dma $end
$var reg 32 q staged_p1_addr_dma [31:0] $end
$var reg 64 r staged_p1_wdata_dma [63:0] $end
$var reg 8 s staged_p1_wstrb_dma [7:0] $end
$var reg 3 t staged_p1_size_dma [2:0] $end
$var reg 1 u staged_p1_is_last_dma $end
$var reg 1 v staged_p1_valid_dma $end
$var reg 1 w p1_ack_toggle_dma $end
$var reg 1 x p1_ack_toggle_sync1_core $end
$var reg 1 y p1_ack_toggle_sync2_core $end
$var reg 1 z p1_ack_toggle_last_seen_core $end
$var reg 1 { p1_bridge_accepted_core $end
$var reg 32 | staged_p1_starve_cnt [31:0] $end
$var reg 1 } staged_p1_starve_asserted $end

$scope function byte_index $end
$upscope $end

$scope function size_to_bytes $end
$upscope $end

$scope function compute_incr_addr $end
$upscope $end

$scope function compute_wrap_addr $end
$upscope $end
$upscope $end
$upscope $end
$enddefinitions $end
#0
$dumpvars
bx 2
bx 3
bx 4
bx 5
bx 6
07
08
bx 9
bx :
bx ;
b0 <
x=
bx ?
bx @
0A
bx B
bx C
bx D
bx E
bx F
0G
0I
b0 J
bx K
0L
bx M
bx N
bx O
bx P
bx Q
0R
0S
bx T
bx U
bx V
bx W
xX
bx Z
bx [
0\
bx ]
bx ^
bx _
bx `
bx a
0b
0d
b0 e
bx f
0g
b0 h
b0 i
b0 j
b0 k
0l
0m
0n
0o
0p
b0 q
b0 r
b0 s
b0 t
0u
0v
0w
0x
0y
0z
0{
b0 |
0}
0!
0"
0#
b100000 $
b1000000 %
b100 &
b10000000000 '
b11111010000 (
b1 )
b100 *
b1000 +
b10000000000000 ,
b1101 -
b0 >
b0 H
b0 Y
b0 c
01
00
0/
0.
$end
#5000
1!
1.
#8000
1"
10
#10000
0!
0.
#15000
1!
1.
#16000
0"
00
#20000
0!
0.
#24000
1"
10
#25000
1!
1.
#30000
0!
0.
#32000
0"
00
#35000
1!
1.
#40000
1"
0!
10
0.
#45000
1!
1.
#48000
0"
00
#50000
1#
0!
1/
11
0.
#55000
1!
1.
#56000
1"
10
#60000
0!
0.
#64000
0"
00
#65000
1!
1.
#70000
0!
0.
#72000
1"
10
#75000
1!
1.
b1001 B
b101101000001010100100111000 C
b1111 D
b11 E
b1 F
1G
#80000
0"
0!
00
0.
#85000
1!
1.
b1001 K
1I
b0xxxxxxxx J
b0xxxxxxxxxxxxxxxx J
b0xxxxxxxxxxxxxxxxxxxxxxxx J
b0xxxxxxxxxxxxxxxxxxxxxxxxxxxxxxxx J
b0xxxxxxxxxxxxxxxxxxxxxxxxxxxxxxxxxxxxxxxx J
b0xxxxxxxxxxxxxxxxxxxxxxxxxxxxxxxxxxxxxxxxxxxxxxxx J
b0xxxxxxxxxxxxxxxxxxxxxxxxxxxxxxxxxxxxxxxxxxxxxxxxxxxxxxxx J
bx J
#88000
1"
10
#90000
0!
0.
#95000
1!
1.
0I
b1 H
#96000
0"
00
#100000
0!
0.
#104000
1"
10
#105000
1!
1.
1I
#110000
0!
0.
#112000
0"
00
#115000
1!
1.
0I
b10 H
#120000
1"
0!
10
0.
#125000
1!
1.
1I
#128000
0"
00
#130000
0!
0.
#135000
1!
1.
0I
b11 H
#136000
1"
10
#140000
0!
0.
#144000
0"
00
#145000
1!
1.
1I
#150000
0!
0.
#152000
1"
10
#155000
1!
1.
0I
b100 H
#160000
0"
0!
00
0.
#165000
1!
1.
1I
#168000
1"
10
#170000
0!
0.
#175000
1!
1.
0I
b101 H
#176000
0"
00
#180000
0!
0.
#184000
1"
10
#185000
1!
1.
1I
#190000
0!
0.
#192000
0"
00
#195000
1!
1.
0I
b110 H
#200000
1"
0!
10
0.
#205000
1!
1.
1I
#208000
0"
00
#210000
0!
0.
#215000
1!
1.
0I
b111 H
#216000
1"
10
#220000
0!
0.
#224000
0"
00
#225000
1!
1.
1I
#230000
0!
0.
#232000
1"
10
#235000
1!
1.
0I
b1000 H
#240000
0"
0!
00
0.
#245000
1!
1.
1I
#248000
1"
10
#250000
0!
0.
#255000
1!
1.
0I
b1001 H
#256000
0"
00
#260000
0!
0.
#264000
1"
10
#265000
1!
1.
1I
#270000
0!
0.
#272000
0"
00
#275000
1!
1.
0I
b1010 H
#280000
1"
0!
10
0.
#285000
1!
1.
1I
#288000
0"
00
#290000
0!
0.
#295000
1!
1.
0I
b1011 H
#296000
1"
10
#300000
0!
0.
#304000
0"
00
#305000
1!
1.
1I
#310000
0!
0.
#312000
1"
10
#315000
1!
1.
0I
b1100 H
#320000
0"
0!
00
0.
#325000
1!
1.
1I
#328000
1"
10
#330000
0!
0.
#335000
1!
1.
0I
b1101 H
#336000
0"
00
#340000
0!
0.
#344000
1"
10
#345000
1!
1.
1I
#350000
0!
0.
#352000
0"
00
#355000
1!
1.
0I
b1110 H
#360000
1"
0!
10
0.
#365000
1!
1.
1I
#368000
0"
00
#370000
0!
0.
#375000
1!
1.
0I
b1111 H
#376000
1"
10
#380000
0!
0.
#384000
0"
00
#385000
1!
1.
1I
1L
#390000
0!
0.
#392000
1"
10
#395000
1!
1.
0I
0G
#400000
0"
0!
00
0.
#405000
1!
1.
#408000
1"
10
#410000
0!
0.
#415000
1!
1.
#416000
0"
00
#420000
0!
0.
#424000
1"
10
#425000
1!
1.
b1111 2
b1110001001001100000100011010000 3
b1111 4
b11 5
b1 6
17
#430000
0!
0.
#432000
0"
00
#435000
1!
1.
#440000
1"
0!
10
0.
#445000
1!
1.
b1110001001001100000100011010000 9
b101100000000000000110110111001011111001000110111110100111010010 :
b11111111 ;
b11 <
0=
18
b1 >
#448000
0"
00
#450000
0!
0.
#455000
1!
1.
b1110001001001100000100011011000 9
b10 >
08
#456000
1"
10
#460000
0!
0.
#464000
0"
00
#465000
1!
1.
b1110001001001100000100011100000 9
b110011100010010000110011101001010100100100111100010010001110111 :
18
b11 >
#470000
0!
0.
#472000
1"
10
#475000
1!
1.
b1110001001001100000100011101000 9
b1001100100010001010101100111010101110101011001110000001101000000 :
b100 >
08
#480000
0"
0!
00
0.
#485000
1!
1.
b1110001001001100000100011110000 9
b1000101111100111111110101000111110101110111000110011000011001101 :
18
b101 >
#488000
1"
10
#490000
0!
0.
#495000
1!
1.
b1110001001001100000100011111000 9
b1010010100001111110000101101100000111100111001101001101101010100 :
b110 >
08
#496000
0"
00
#500000
0!
0.
#504000
1"
10
#505000
1!
1.
b1110001001001100000100100000000 9
b1011010011001000010001110010110110101011110100010000001001101010 :
18
b111 >
#510000
0!
0.
#512000
0"
00
#515000
1!
1.
b1110001001001100000100100001000 9
b11110010100111111000000111111010101110001011111010011001000 :
b1000 >
08
#520000
1"
0!
10
0.
#525000
1!
1.
b1110001001001100000100100010000 9
b100010111111001001110100011110010110100000110111100001111000001 :
18
b1001 >
#528000
0"
00
#530000
0!
0.
#535000
1!
1.
b1110001001001100000100100011000 9
b1011000001010111001011011011000001101110011111101010101010110111 :
b1010 >
08
#536000
1"
10
#540000
0!
0.
#544000
0"
00
#545000
1!
1.
b1110001001001100000100100100000 9
b1010111001011011010100001110010111010000101011101101101101010 :
18
b1011 >
#550000
0!
0.
#552000
1"
10
#555000
1!
1.
b1110001001001100000100100101000 9
b10100010000001101001011010001010100101100010010110001011000010 :
b1100 >
08
#560000
0"
0!
00
0.
#565000
1!
1.
b1110001001001100000100100110000 9
b1011001000011111111011101011110111101000010100011100000100110011 :
18
b1101 >
#568000
1"
10
#570000
0!
0.
#575000
1!
1.
b1110001001001100000100100111000 9
b1101010111000010001001110111110100110100011101001100100100110001 :
b1110 >
08
#576000
0"
00
#580000
0!
0.
#584000
1"
10
#585000
1!
1.
b1110001001001100000100101000000 9
b110001111011011000001011011001000111010011000001111111100110010 :
18
b1111 >
#590000
0!
0.
#592000
0"
00
#595000
1!
1.
b1110001001001100000100101001000 9
b1011100001011100000011101000000101100101100011100011101110110110 :
1=
b10000 >
b1111 ?
b0 @
1A
07
08
#600000
1"
0!
10
0.
#605000
1!
1.
#608000
0"
00
#610000
0!
0.
#615000
1!
1.
#616000
1"
10
#620000
0!
0.
#624000
0"
00
#625000
1!
1.
0A
#630000
0!
0.
#632000
1"
10
#635000
1!
1.
#640000
0"
0!
00
0.
#645000
1!
1.
b1000 2
b10110010000011010000010111111000 3
17
b0 >
#648000
1"
10
#650000
0!
0.
#655000
1!
1.
#656000
0"
00
#660000
0!
0.
#664000
1"
10
#665000
1!
1.
b10110010000011010000010111111000 9
b1001111010010011010110100000111010011111000000010101111101000101 :
0=
18
b1 >
#670000
0!
0.
#672000
0"
00
#675000
1!
1.
b10110010000011010000011000000000 9
b10 >
08
#680000
1"
0!
10
0.
#685000
1!
1.
b10110010000011010000011000001000 9
b1000011110000000011100111111110111000000001100001000011101010010 :
18
b11 >
#688000
0"
00
#690000
0!
0.
#695000
1!
1.
b10110010000011010000011000010000 9
b101011001111101110100000001010100111101110010011011111101010100 :
b100 >
08
#696000
1"
10
#700000
0!
0.
#704000
0"
00
#705000
1!
1.
b10110010000011010000011000011000 9
b1111011111110001010011110111101101000000001011111101001010110001 :
18
b101 >
#710000
0!
0.
#712000
1"
10
#715000
1!
1.
b10110010000011010000011000100000 9
b1100010111000001000011111101010110000000011100111001000000010 :
b110 >
08
#720000
0"
0!
00
0.
#725000
1!
1.
b10110010000011010000011000101000 9
b1100100010111110001001001111110010101001011101111101101000111011 :
18
b111 >
#728000
1"
10
#730000
0!
0.
#735000
1!
1.
b10110010000011010000011000110000 9
b1011001101000000100010111011010111000000000111101110010111110010 :
b1000 >
08
#736000
0"
00
#740000
0!
0.
#744000
1"
10
#745000
1!
1.
b10110010000011010000011000111000 9
b101011011011101110010101001011100111010101010110100110101101110 :
18
b1001 >
#750000
0!
0.
#752000
0"
00
#755000
1!
1.
b10110010000011010000011001000000 9
b1101010000101001111100011101000010001000101001011011100011001000 :
b1010 >
08
#760000
1"
0!
10
0.
#765000
1!
1.
b10110010000011010000011001001000 9
b1000011111101110111100000100110111010000001100011111010101011101 :
18
b1011 >
#768000
0"
00
#770000
0!
0.
#775000
1!
1.
b10110010000011010000011001010000 9
b11000110110110111101110001100010100111111101001000011001010001 :
b1100 >
08
#776000
1"
10
#780000
0!
0.
#784000
0"
00
#785000
1!
1.
b10110010000011010000011001011000 9
b1101000010100101001011100101011110101000011100101110111001001011 :
18
b1101 >
#790000
0!
0.
#792000
1"
10
#795000
1!
1.
b10110010000011010000011001100000 9
b1110011011001001111010010001101000010010001000001010110100000101 :
b1110 >
08
#800000
0"
0!
00
0.
#805000
1!
1.
b10110010000011010000011001101000 9
b1010110100100001100100010100110110101010010111110110111001000001 :
18
b1111 >
#808000
1"
10
#810000
0!
0.
#815000
1!
1.
b10110010000011010000011001110000 9
b11111011011111010001111010001001110110001011110011010011001010 :
1=
b10000 >
b1000 ?
1A
07
08
#816000
0"
00
#820000
0!
0.
#824000
1"
10
#825000
1!
1.
#830000
0!
0.
#832000
0"
00
#835000
1!
1.
#840000
1"
0!
10
0.
#845000
1!
1.
0A
#848000
0"
00
#850000
0!
0.
#855000
1!
1.
#856000
1"
10
#860000
0!
0.
#864000
0"
00
#865000
1!
1.
b100 2
b11111010000101000011100011000 3
17
b0 >
#870000
0!
0.
#872000
1"
10
#875000
1!
1.
#880000
0"
0!
00
0.
#885000
1!
1.
b11111010000101000011100011000 9
b11001110111011001010011101011001110111101100011100000100100000 :
0=
18
b1 >
#888000
1"
10
#890000
0!
0.
#895000
1!
1.
b11111010000101000011100100000 9
b10 >
08
#896000
0"
00
#900000
0!
0.
#904000
1"
10
#905000
1!
1.
b11111010000101000011100101000 9
b100110101111100110101001001111100111011101000001100111111101001 :
18
b11 >
#910000
0!
0.
#912000
0"
00
#915000
1!
1.
b11111010000101000011100110000 9
b1100110111011000101000111101111111111011011001101100011101101001 :
b100 >
08
#920000
1"
0!
10
0.
#925000
1!
1.
b11111010000101000011100111000 9
b100010011111100010110100001000110101110110101110100110101110001 :
18
b101 >
#928000
0"
00
#930000
0!
0.
#935000
1!
1.
b11111010000101000011101000000 9
b11000111000111111010000100111111101000010000110011110010110011 :
b110 >
08
#936000
1"
10
#940000
0!
0.
#944000
0"
00
#945000
1!
1.
b11111010000101000011101001000 9
b111001011011110101010001101011011100001011010001111010010000101 :
18
b111 >
#950000
0!
0.
#952000
1"
10
#955000
1!
1.
b11111010000101000011101010000 9
b1101110101010000000110001001001010000000000001001101000111001000 :
b1000 >
08
#960000
0"
0!
00
0.
#965000
1!
1.
b11111010000101000011101011000 9
b110000111011001100110101110110110011111111001011101000111110010 :
18
b1001 >
#968000
1"
10
#970000
0!
0.
#975000
1!
1.
b11111010000101000011101100000 9
b1000101110000010110011000111011101001011111001101010110101100111 :
b1010 >
08
#976000
0"
00
#980000
0!
0.
#984000
1"
10
#985000
1!
1.
b11111010000101000011101101000 9
b1110100011111000001000101101111110101010101011010100100001010110 :
18
b1011 >
#990000
0!
0.
#992000
0"
00
#995000
1!
1.
b11111010000101000011101110000 9
b11001111110100011000010011101101110110001111100111111001001101 :
b1100 >
08
#1000000
1"
0!
10
0.
#1005000
1!
1.
b11111010000101000011101111000 9
b101011010010001011111000011100101011110011000011001110000111101 :
18
b1101 >
#1008000
0"
00
#1010000
0!
0.
#1015000
1!
1.
b11111010000101000011110000000 9
b1010011001110100011010001001101001011001111010101001101101111 :
b1110 >
08
#1016000
1"
10
#1020000
0!
0.
#1024000
0"
00
#1025000
1!
1.
b11111010000101000011110001000 9
b1010110111010101001110101011111011101111111001111101000111010001 :
18
b1111 >
#1030000
0!
0.
#1032000
1"
10
#1035000
1!
1.
b11111010000101000011110010000 9
b1111101000010111101110101110101110101101011100000110001011010110 :
1=
b10000 >
b100 ?
1A
07
08
#1040000
0"
0!
00
0.
#1045000
1!
1.
#1048000
1"
10
#1050000
0!
0.
#1055000
1!
1.
#1056000
0"
00
#1060000
0!
0.
#1064000
1"
10
#1065000
1!
1.
0A
