run/axi_mm_top.vcd
$date
	Mon Jan 12 23:39:13 2026
$end
$version
	QuestaSim Version 10.7c
$end
$timescale
	1ps
$end

$scope module axi_mm_top $end
$var reg 1 ! dma_clk $end
$var reg 1 " core_clk $end
$var reg 1 # rst_n $end

$scope module dut $end
$var parameter 32 $ ADDR_WIDTH $end
$var parameter 32 % DATA_WIDTH $end
$var parameter 32 & ID_WIDTH $end
$var parameter 32 ' DEPTH_WORDS $end
$var parameter 32 ( STARVE_THRESHOLD $end
$var parameter 1 ) ASSERT_ON_STARVE $end
$var parameter 32 * IDW $end
$var parameter 32 + BYTE_PER_WORD $end
$var parameter 32 , MEM_BYTES $end
$var parameter 32 - ADDR_IDX_W $end
$var wire 1 . dma_clk $end
$var wire 1 / dma_rst_n $end
$var wire 1 0 core_clk $end
$var wire 1 1 core_rst_n $end
$var reg 4 2 p0_awid [3:0] $end
$var reg 32 3 p0_awaddr [31:0] $end
$var reg 8 4 p0_awlen [7:0] $end
$var reg 3 5 p0_awsize [2:0] $end
$var reg 2 6 p0_awburst [1:0] $end
$var reg 1 7 p0_aw_active $end
$var reg 1 8 p0_local_wr_req $end
$var reg 32 9 p0_local_wr_byte_addr [31:0] $end
$var reg 64 : p0_local_wr_wdata [63:0] $end
$var reg 8 ; p0_local_wr_wstrb [7:0] $end
$var reg 3 < p0_local_wr_size [2:0] $end
$var reg 1 = p0_local_wr_is_last $end
$var reg 1 > p0_wr_req $end
$var reg 32 ? p0_wr_byte_addr [31:0] $end
$var reg 64 @ p0_wr_wdata [63:0] $end
$var reg 8 A p0_wr_wstrb [7:0] $end
$var reg 3 B p0_wr_size [2:0] $end
$var reg 1 C p0_wr_is_last $end
$var reg 1 D p0_w_active $end
$var integer 32 E p0_wbeat_cnt $end
$var reg 4 F p0_bid [3:0] $end
$var reg 2 G p0_bresp [1:0] $end
$var reg 1 H p0_bvalid $end
$var reg 4 I p0_arid [3:0] $end
$var reg 32 J p0_araddr [31:0] $end
$var reg 8 K p0_arlen [7:0] $end
$var reg 3 L p0_arsize [2:0] $end
$var reg 2 M p0_arburst [1:0] $end
$var reg 1 N p0_ar_active $end
$var integer 32 O p0_rbeat_cnt $end
$var reg 1 P p0_rvalid $end
$var reg 64 Q p0_rdata [63:0] $end
$var reg 4 R p0_rid [3:0] $end
$var reg 1 S p0_rlast $end
$var reg 32 T bridge_p0_addr_dma [31:0] $end
$var reg 64 U bridge_p0_wdata_dma [63:0] $end
$var reg 8 V bridge_p0_wstrb_dma [7:0] $end
$var reg 3 W bridge_p0_size_dma [2:0] $end
$var reg 1 X bridge_p0_is_last_dma $end
$var reg 1 Y p0_req_toggle_dma $end
$var reg 1 Z p0_req_toggle_sync1_core $end
$var reg 1 [ p0_req_toggle_sync2_core $end
$var reg 1 \ p0_req_toggle_last_seen_core $end
$var reg 32 ] staged_p0_addr_dma [31:0] $end
$var reg 64 ^ staged_p0_wdata_dma [63:0] $end
$var reg 8 _ staged_p0_wstrb_dma [7:0] $end
$var reg 3 ` staged_p0_size_dma [2:0] $end
$var reg 1 a staged_p0_is_last_dma $end
$var reg 1 b staged_p0_valid_dma $end
$var reg 1 c p0_ack_toggle_core $end
$var reg 1 d p0_ack_toggle_sync1_dma $end
$var reg 1 e p0_ack_toggle_sync2_dma $end
$var reg 1 f p0_ack_toggle_last_seen_dma $end
$var reg 1 g p0_bridge_accepted_dma $end
$var reg 4 h p1_awid [3:0] $end
$var reg 32 i p1_awaddr [31:0] $end
$var reg 8 j p1_awlen [7:0] $end
$var reg 3 k p1_awsize [2:0] $end
$var reg 2 l p1_awburst [1:0] $end
$var reg 1 m p1_aw_active $end
$var reg 1 n p1_local_wr_req $end
$var reg 32 o p1_local_wr_byte_addr [31:0] $end
$var reg 64 p p1_local_wr_wdata [63:0] $end
$var reg 8 q p1_local_wr_wstrb [7:0] $end
$var reg 3 r p1_local_wr_size [2:0] $end
$var reg 1 s p1_local_wr_is_last $end
$var integer 32 t p1_wbeat_cnt $end
$var reg 1 u p1_w_active $end
$var reg 4 v p1_bid [3:0] $end
$var reg 2 w p1_bresp [1:0] $end
$var reg 1 x p1_bvalid $end
$var reg 4 y p1_arid [3:0] $end
$var reg 32 z p1_araddr [31:0] $end
$var reg 8 { p1_arlen [7:0] $end
$var reg 3 | p1_arsize [2:0] $end
$var reg 2 } p1_arburst [1:0] $end
$var reg 1 ~ p1_ar_active $end
$var integer 32 !! p1_rbeat_cnt $end
$var reg 1 "! p1_rvalid $end
$var reg 64 #! p1_rdata [63:0] $end
$var reg 4 $! p1_rid [3:0] $end
$var reg 1 %! p1_rlast $end
$var reg 32 &! bridge_p1_addr_core [31:0] $end
$var reg 64 '! bridge_p1_wdata_core [63:0] $end
$var reg 8 (! bridge_p1_wstrb_core [7:0] $end
$var reg 3 )! bridge_p1_size_core [2:0] $end
$var reg 1 *! bridge_p1_is_last_core $end
$var reg 1 +! p1_req_toggle_core $end
$var reg 1 ,! p1_req_toggle_sync1_dma $end
$var reg 1 -! p1_req_toggle_sync2_dma $end
$var reg 1 .! p1_req_toggle_last_seen_dma $end
$var reg 32 /! staged_p1_addr_dma [31:0] $end
$var reg 64 0! staged_p1_wdata_dma [63:0] $end
$var reg 8 1! staged_p1_wstrb_dma [7:0] $end
$var reg 3 2! staged_p1_size_dma [2:0] $end
$var reg 1 3! staged_p1_is_last_dma $end
$var reg 1 4! staged_p1_valid_dma $end
$var reg 1 5! p1_ack_toggle_dma $end
$var reg 1 6! p1_ack_toggle_sync1_core $end
$var reg 1 7! p1_ack_toggle_sync2_core $end
$var reg 1 8! p1_ack_toggle_last_seen_core $end
$var reg 1 9! p1_bridge_accepted_core $end
$var reg 32 :! staged_p1_starve_cnt [31:0] $end
$var reg 1 ;! staged_p1_starve_asserted $end
$var reg 1 <! p1_w_hs $end
$var reg 1 =! p0_w_hs $end

$scope function byte_index $end
$upscope $end

$scope function size_to_bytes $end
$upscope $end

$scope function compute_incr_addr $end
$upscope $end

$scope function compute_wrap_addr $end
$upscope $end
$upscope $end
$upscope $end
$enddefinitions $end
#0
$dumpvars
bx 2
bx 3
bx 4
bx 5
bx 6
07
08
bx 9
bx :
bx ;
bx <
x=
0>
bx ?
bx @
bx A
bx B
xC
0D
bx F
bx G
0H
bx I
bx J
bx K
bx L
bx M
0N
0P
b0 Q
bx R
0S
b0 T
b0 U
b0 V
b0 W
0X
0Y
xZ
x[
x\
bx ]
bx ^
bx _
bx `
xa
xb
xc
0d
0e
0f
0g
bx h
bx i
bx j
bx k
bx l
0m
0n
bx o
bx p
bx q
bx r
xs
0u
bx v
bx w
0x
bx y
bx z
bx {
bx |
bx }
0~
0"!
b0 #!
bx $!
0%!
b0 &!
b0 '!
b0 (!
b0 )!
0*!
0+!
0,!
0-!
0.!
b0 /!
b0 0!
b0 1!
b0 2!
03!
04!
05!
06!
07!
08!
09!
b0 :!
0;!
0<!
0=!
0!
0"
0#
b100000 $
b1000000 %
b100 &
b10000000000 '
b11111010000 (
b1 )
b100 *
b1000 +
b10000000000000 ,
b1101 -
b0 E
b0 O
b0 t
b0 !!
01
00
0/
0.
$end
#5000
1!
1.
#8000
1"
10
#10000
0!
0.
#15000
1!
1.
#16000
0"
00
#20000
0!
0.
#24000
1"
10
#25000
1!
1.
#30000
0!
0.
#32000
0"
00
#35000
1!
1.
#40000
1"
0!
10
0.
#45000
1!
1.
#48000
0"
00
#50000
1#
0!
1/
11
0.
#55000
1!
1.
#56000
1"
10
#60000
0!
0.
#64000
0"
00
#65000
1!
1.
b0 2
b100000000 3
b0 4
b11 5
b1 6
17
#70000
0!
0.
#72000
1"
10
#75000
1!
1.
x=!
#80000
0"
0!
00
0.
#85000
1!
1.
b100000000 9
b1101111010101101101111101110111100010010001101000101011001111000 :
b11111111 ;
b11 <
1=
18
b1 E
b0 F
b0 G
1H
07
#88000
1"
10
#90000
0!
0.
#95000
1!
1.
0=!
#96000
0"
00
#100000
0!
0.
#104000
1"
10
#105000
1!
1.
0H
#110000
0!
0.
#112000
0"
00
#115000
1!
1.
#120000
1"
0!
10
0.
#125000
1!
1.
b1 I
b100000000 J
b0 K
b11 L
b1 M
1N
#128000
0"
00
#130000
0!
0.
#135000
1!
1.
b1 R
1P
1S
b0xxxxxxxx Q
b0xxxxxxxxxxxxxxxx Q
b0xxxxxxxxxxxxxxxxxxxxxxxx Q
b0xxxxxxxxxxxxxxxxxxxxxxxxxxxxxxxx Q
b0xxxxxxxxxxxxxxxxxxxxxxxxxxxxxxxxxxxxxxxx Q
b0xxxxxxxxxxxxxxxxxxxxxxxxxxxxxxxxxxxxxxxxxxxxxxxx Q
b0xxxxxxxxxxxxxxxxxxxxxxxxxxxxxxxxxxxxxxxxxxxxxxxxxxxxxxxx Q
bx Q
#136000
1"
10
#140000
0!
0.
#144000
0"
00
#145000
1!
1.
0P
0N
#150000
0!
0.
#152000
1"
10
#155000
1!
1.
#160000
0"
0!
00
0.
#165000
1!
1.
#168000
1"
10
#170000
0!
0.
#175000
1!
1.
b10 2
b1000000000 3
b11 4
17
b0 E
#176000
0"
00
#180000
0!
0.
#184000
1"
10
#185000
1!
1.
x=!
#190000
0!
0.
#192000
0"
00
#195000
1!
1.
b1000000000 9
bx :
0=
b1 E
#200000
1"
0!
10
0.
#205000
1!
1.
b1000001000 9
b10 E
#208000
0"
00
#210000
0!
0.
#215000
1!
1.
b1000010000 9
b11 E
#216000
1"
10
#220000
0!
0.
#224000
0"
00
#225000
1!
1.
b1000011000 9
1=
b100 E
b10 F
1H
07
#230000
0!
0.
#232000
1"
10
#235000
1!
1.
0=!
#240000
0"
0!
00
0.
#245000
1!
1.
0H
#248000
1"
10
#250000
0!
0.
#255000
1!
1.
#256000
0"
00
#260000
0!
0.
#264000
1"
10
#265000
1!
1.
b11 I
b1000000000 J
b11 K
1N
#270000
0!
0.
#272000
0"
00
#275000
1!
1.
b11 R
1P
0S
#280000
1"
0!
10
0.
#285000
1!
1.
0P
b1 O
#288000
0"
00
#290000
0!
0.
#295000
1!
1.
1P
#296000
1"
10
#300000
0!
0.
#304000
0"
00
#305000
1!
1.
0P
b10 O
#310000
0!
0.
#312000
1"
10
#315000
1!
1.
1P
#320000
0"
0!
00
0.
#325000
1!
1.
0P
b11 O
#328000
1"
10
#330000
0!
0.
#335000
1!
1.
1P
1S
#336000
0"
00
#340000
0!
0.
#344000
1"
10
#345000
1!
1.
0P
0N
